module gitlab.com/isard/isardvdi

go 1.16

require (
	github.com/golang-jwt/jwt v3.2.2+incompatible
	github.com/rs/zerolog v1.23.0
	github.com/spf13/viper v1.8.1
	github.com/stretchr/testify v1.7.0
	golang.org/x/crypto v0.0.0-20200622213623-75b288015ac9
	golang.org/x/oauth2 v0.0.0-20210402161424-2e8d93401602
	gopkg.in/rethinkdb/rethinkdb-go.v6 v6.2.1
)
